{
  "expoServerNgrokUrl": null,
  "packagerNgrokUrl": null,
  "ngrokPid": null,
  "expoServerPort": null,
  "webpackServerPort": 19003,
  "devToolsPort": 19002,
  "packagerPort": null,
  "packagerPid": null
}